"","GO.biological.process.complete","Arabidopsis.thaliana...REFLIST..27581.","Client.Text.Box.Input..24.","Client.Text.Box.Input..expected.","Client.Text.Box.Input..over.under.","Client.Text.Box.Input..fold.Enrichment.","Client.Text.Box.Input..raw.P.value.","Client.Text.Box.Input..FDR."
"1","response to water deprivation (GO:0009414)",350,14,0.3,"+",45.97,6.51e-21,3.88e-17
"2","response to water (GO:0009415)",358,14,0.31,"+",44.94,8.86e-21,2.64e-17
"3","leaf senescence (GO:0010150)",98,3,0.09,"+",35.18,9.1e-05,0.0271
"4","plant organ senescence (GO:0090693)",104,3,0.09,"+",33.15,0.000108,0.0306
"5","response to abscisic acid (GO:0009737)",596,11,0.52,"+",21.21,1.02e-12,8.71e-10
"6","response to alcohol (GO:0097305)",600,11,0.52,"+",21.07,1.1e-12,8.18e-10
"7","response to cold (GO:0009409)",421,7,0.37,"+",19.11,5.65e-08,2.25e-05
"8","response to inorganic substance (GO:0010035)",927,14,0.81,"+",17.36,3.71e-15,7.38e-12
"9","response to salt stress (GO:0009651)",480,7,0.42,"+",16.76,1.36e-07,5.06e-05
"10","response to osmotic stress (GO:0006970)",556,8,0.48,"+",16.54,1.59e-08,7.91e-06
"11","response to lipid (GO:0033993)",805,11,0.7,"+",15.7,2.48e-11,1.64e-08
"12","response to acid chemical (GO:0001101)",1232,15,1.07,"+",13.99,5.46e-15,8.14e-12
"13","response to temperature stimulus (GO:0009266)",612,7,0.53,"+",13.14,6.84e-07,0.000215
"14","response to oxygen-containing compound (GO:1901700)",1637,15,1.42,"+",10.53,3.33e-13,3.31e-10
"15","response to abiotic stimulus (GO:0009628)",1969,16,1.71,"+",9.34,2.04e-13,2.43e-10
"16","response to hormone (GO:0009725)",1597,11,1.39,"+",7.92,3.12e-08,1.43e-05
"17","response to endogenous stimulus (GO:0009719)",1615,11,1.41,"+",7.83,3.5e-08,1.49e-05
"18","response to organic substance (GO:0010033)",1927,11,1.68,"+",6.56,2.11e-07,7.38e-05
"19","response to chemical (GO:0042221)",2810,15,2.45,"+",6.13,7.26e-10,3.93e-07
"20","response to stress (GO:0006950)",3397,17,2.96,"+",5.75,5.22e-11,3.11e-08
"21","response to stimulus (GO:0050896)",5916,17,5.15,"+",3.3,3.12e-07,0.000103
